<?xml version="1.0" encoding="utf-8"?>
<!-- Generator: Adobe Illustrator 25.2.0, SVG Export Plug-In . SVG Version: 6.00 Build 0)  -->
<svg version="1.1" xmlns="http://www.w3.org/2000/svg" xmlns:xlink="http://www.w3.org/1999/xlink" x="0px" y="0px"
	 viewBox="0 0 1920 1080" style="enable-background:new 0 0 1920 1080;" xml:space="preserve">
<style type="text/css">
	.st0{fill:#B33694;}
	.st1{fill:#FCEE21;}
	.st2{fill:#0000FF;}
	.st3{fill:#6CE700;}
	.st4{fill:#29ABE2;}
	.st5{fill:#00FFFF;}
	.st6{fill:#FFFFFF;}
	.st7{fill:#FFFF00;}
	.st8{fill:#662D91;}
	.st9{fill:#FF7BAC;}
</style>
<g id="Layer_2">
</g>
<g id="Layer_1">
	<circle class="st0" cx="245.32" cy="248.5" r="4.69"/>
	<circle class="st1" cx="365.29" cy="137.64" r="2.79"/>
	<circle class="st2" cx="255.29" cy="251.31" r="0.74"/>
	<circle class="st3" cx="356.39" cy="154.45" r="0.74"/>
	<circle class="st0" cx="279.61" cy="192.75" r="0.74"/>
	<circle class="st3" cx="318.9" cy="181.33" r="0.74"/>
	<circle class="st0" cx="410.52" cy="178.23" r="1.48"/>
	<circle class="st4" cx="222.15" cy="142.84" r="0.74"/>
	<circle class="st5" cx="379.4" cy="146.78" r="0.74"/>
	<circle class="st6" cx="196.1" cy="200.94" r="4.69"/>
	<circle class="st7" cx="207.88" cy="183.85" r="0.74"/>
	<circle class="st3" cx="197.79" cy="183.59" r="2.02"/>
	<circle class="st8" cx="195.57" cy="147.71" r="3.04"/>
	<circle class="st4" cx="339.15" cy="249.84" r="0.74"/>
	<circle class="st6" cx="313.1" cy="307.94" r="4.69"/>
	<circle class="st7" cx="324.88" cy="290.85" r="0.74"/>
	<circle class="st3" cx="314.79" cy="290.59" r="2.02"/>
	<circle class="st8" cx="312.57" cy="254.71" r="3.04"/>
	<circle class="st5" cx="259.31" cy="264.88" r="1.6"/>
	<circle class="st0" cx="278.17" cy="137.01" r="4.69"/>
	<circle class="st2" cx="274.51" cy="127.32" r="0.74"/>
	<circle class="st5" cx="283.03" cy="116.02" r="1.6"/>
	<circle class="st8" cx="307.49" cy="182.45" r="2.5"/>
	<circle class="st0" cx="434.61" cy="214.75" r="0.74"/>
	<circle class="st3" cx="473.9" cy="203.33" r="0.74"/>
	<circle class="st8" cx="462.49" cy="204.45" r="2.5"/>
	<circle class="st9" cx="398.17" cy="146.79" r="1.84"/>
	<circle class="st1" cx="379.45" cy="258.24" r="2.79"/>
	<circle class="st3" cx="397.93" cy="253.71" r="0.74"/>
	<circle class="st0" cx="379.68" cy="197.47" r="1.48"/>
	<circle class="st5" cx="376.89" cy="241.62" r="0.74"/>
	<circle class="st9" cx="364.42" cy="227.61" r="1.84"/>
	<circle class="st0" cx="693.16" cy="357.7" r="4.69"/>
	<circle class="st1" cx="532.91" cy="389.41" r="2.79"/>
	<circle class="st2" cx="686.13" cy="350.08" r="0.74"/>
	<circle class="st3" cx="549.29" cy="379.74" r="0.74"/>
	<circle class="st0" cx="634.77" cy="387.27" r="0.74"/>
	<circle class="st3" cx="595.31" cy="376.45" r="0.74"/>
	<circle class="st0" cx="515.61" cy="331.16" r="1.48"/>
	<circle class="st4" cx="657.62" cy="459.87" r="0.74"/>
	<circle class="st5" cx="525.67" cy="374.24" r="0.74"/>
	<circle class="st6" cx="710.23" cy="423.98" r="4.69"/>
	<circle class="st7" cx="691.24" cy="432.38" r="0.74"/>
	<circle class="st3" cx="699.71" cy="437.88" r="2.02"/>
	<circle class="st8" cx="682.82" cy="469.62" r="3.04"/>
	<circle class="st4" cx="613.89" cy="307.47" r="0.74"/>
	<circle class="st6" cx="666.49" cy="271.58" r="4.69"/>
	<circle class="st7" cx="647.51" cy="279.98" r="0.74"/>
	<circle class="st3" cx="655.98" cy="285.48" r="2.02"/>
	<circle class="st8" cx="639.09" cy="317.22" r="3.04"/>
	<circle class="st5" cx="689.8" cy="336.42" r="1.6"/>
	<circle class="st0" cx="606.84" cy="435.53" r="4.69"/>
	<circle class="st2" cx="604.88" cy="445.7" r="0.74"/>
	<circle class="st5" cx="591.71" cy="450.87" r="1.6"/>
	<circle class="st8" cx="605.61" cy="381.46" r="2.5"/>
	<circle class="st0" cx="514.19" cy="287.43" r="0.74"/>
	<circle class="st3" cx="474.72" cy="276.61" r="0.74"/>
	<circle class="st8" cx="485.03" cy="281.62" r="2.5"/>
	<circle class="st9" cx="509.68" cy="364.41" r="1.84"/>
	<circle class="st1" cx="583.94" cy="279.22" r="2.79"/>
	<circle class="st3" cx="565.82" cy="273.42" r="0.74"/>
	<circle class="st0" cx="551.95" cy="330.89" r="1.48"/>
	<circle class="st5" cx="577.43" cy="294.72" r="0.74"/>
	<circle class="st9" cx="580.73" cy="313.2" r="1.84"/>
	<circle class="st0" cx="798.97" cy="87.95" r="4.69"/>
	<circle class="st1" cx="746" cy="242.48" r="2.79"/>
	<circle class="st2" cx="788.86" cy="90.2" r="0.74"/>
	<circle class="st3" cx="745.86" cy="223.45" r="0.74"/>
	<circle class="st0" cx="795.26" cy="153.29" r="0.74"/>
	<circle class="st3" cx="766.09" cy="182" r="0.74"/>
	<circle class="st0" cx="686.93" cy="228.22" r="1.48"/>
	<circle class="st4" cx="869.52" cy="169.95" r="0.74"/>
	<circle class="st5" cx="729.24" cy="241.13" r="0.74"/>
	<circle class="st6" cx="864.86" cy="106.44" r="4.69"/>
	<circle class="st7" cx="862.61" cy="127.08" r="0.74"/>
	<circle class="st3" cx="871.62" cy="122.51" r="2.02"/>
	<circle class="st8" cx="890.6" cy="153.04" r="3.04"/>
	<circle class="st4" cx="715.75" cy="131.31" r="0.74"/>
	<circle class="st6" cx="711.09" cy="67.8" r="4.69"/>
	<circle class="st7" cx="708.84" cy="88.44" r="0.74"/>
	<circle class="st3" cx="717.84" cy="83.88" r="2.02"/>
	<circle class="st8" cx="736.83" cy="114.41" r="3.04"/>
	<circle class="st5" cx="778.88" cy="80.17" r="1.6"/>
	<circle class="st0" cx="822.98" cy="201.67" r="4.69"/>
	<circle class="st2" cx="830.81" cy="208.46" r="0.74"/>
	<circle class="st5" cx="828.67" cy="222.45" r="1.6"/>
	<circle class="st8" cx="775.6" cy="175.6" r="2.5"/>
	<circle class="st0" cx="648.39" cy="207.51" r="0.74"/>
	<circle class="st3" cx="619.23" cy="236.22" r="0.74"/>
	<circle class="st8" cx="628.74" cy="229.82" r="2.5"/>
	<circle class="st9" cx="712.72" cy="250.03" r="1.84"/>
	<circle class="st1" cx="676.29" cy="143.05" r="2.79"/>
	<circle class="st3" cx="662.18" cy="155.81" r="0.74"/>
	<circle class="st0" cx="704.93" cy="196.64" r="1.48"/>
	<circle class="st5" cx="686.43" cy="156.46" r="0.74"/>
	<circle class="st9" cx="704.06" cy="162.88" r="1.84"/>
	<circle class="st1" cx="958.29" cy="273.64" r="2.79"/>
	<circle class="st3" cx="949.39" cy="290.45" r="0.74"/>
	<circle class="st0" cx="1003.52" cy="314.23" r="1.48"/>
	<circle class="st5" cx="972.4" cy="282.78" r="0.74"/>
	<circle class="st4" cx="932.15" cy="385.84" r="0.74"/>
	<circle class="st0" cx="1027.61" cy="350.75" r="0.74"/>
	<circle class="st3" cx="1066.9" cy="339.33" r="0.74"/>
	<circle class="st8" cx="1055.49" cy="340.45" r="2.5"/>
	<circle class="st9" cx="991.17" cy="282.79" r="1.84"/>
	<circle class="st1" cx="972.45" cy="394.24" r="2.79"/>
	<circle class="st3" cx="990.93" cy="389.71" r="0.74"/>
	<circle class="st0" cx="972.68" cy="333.47" r="1.48"/>
	<circle class="st5" cx="969.89" cy="377.62" r="0.74"/>
	<circle class="st9" cx="957.42" cy="363.61" r="1.84"/>
	<circle class="st6" cx="1259.49" cy="407.58" r="4.69"/>
	<circle class="st7" cx="1240.51" cy="415.98" r="0.74"/>
	<circle class="st3" cx="1248.98" cy="421.48" r="2.02"/>
	<circle class="st0" cx="1107.19" cy="423.43" r="0.74"/>
	<circle class="st3" cx="1067.72" cy="412.61" r="0.74"/>
	<circle class="st8" cx="1078.03" cy="417.62" r="2.5"/>
	<circle class="st1" cx="1176.94" cy="415.22" r="2.79"/>
	<circle class="st3" cx="1158.82" cy="409.42" r="0.74"/>
	<circle class="st5" cx="1170.43" cy="430.72" r="0.74"/>
	<circle class="st1" cx="1339" cy="378.48" r="2.79"/>
	<circle class="st3" cx="1338.86" cy="359.45" r="0.74"/>
	<circle class="st0" cx="1388.26" cy="289.29" r="0.74"/>
	<circle class="st3" cx="1359.09" cy="318" r="0.74"/>
	<circle class="st0" cx="1279.93" cy="364.22" r="1.48"/>
	<circle class="st5" cx="1322.24" cy="377.13" r="0.74"/>
	<circle class="st6" cx="1457.86" cy="242.44" r="4.69"/>
	<circle class="st7" cx="1455.61" cy="263.08" r="0.74"/>
	<circle class="st4" cx="1308.75" cy="267.31" r="0.74"/>
	<circle class="st8" cx="1329.83" cy="250.41" r="3.04"/>
	<circle class="st0" cx="1415.98" cy="337.67" r="4.69"/>
	<circle class="st2" cx="1423.81" cy="344.46" r="0.74"/>
	<circle class="st5" cx="1421.67" cy="358.45" r="1.6"/>
	<circle class="st8" cx="1368.6" cy="311.6" r="2.5"/>
	<circle class="st0" cx="1241.39" cy="343.51" r="0.74"/>
	<circle class="st3" cx="1212.23" cy="372.22" r="0.74"/>
	<circle class="st8" cx="1221.74" cy="365.82" r="2.5"/>
	<circle class="st9" cx="1305.72" cy="386.03" r="1.84"/>
	<circle class="st1" cx="1269.29" cy="279.05" r="2.79"/>
	<circle class="st3" cx="1255.18" cy="291.81" r="0.74"/>
	<circle class="st0" cx="1297.93" cy="332.64" r="1.48"/>
	<circle class="st5" cx="1279.43" cy="292.46" r="0.74"/>
	<circle class="st9" cx="1297.06" cy="298.88" r="1.84"/>
	<circle class="st0" cx="673.43" cy="1078.28" r="4.69"/>
	<circle class="st1" cx="720.46" cy="921.84" r="2.79"/>
	<circle class="st2" cx="683.45" cy="1075.64" r="0.74"/>
	<circle class="st3" cx="721.33" cy="940.85" r="0.74"/>
	<circle class="st0" cx="674.65" cy="1012.84" r="0.74"/>
	<circle class="st3" cx="702.69" cy="983.04" r="0.74"/>
	<circle class="st0" cx="780.03" cy="933.84" r="1.48"/>
	<circle class="st4" cx="599.8" cy="999.04" r="0.74"/>
	<circle class="st5" cx="737.26" cy="922.55" r="0.74"/>
	<circle class="st6" cx="606.88" cy="1062.32" r="4.69"/>
	<circle class="st7" cx="608.34" cy="1041.61" r="0.74"/>
	<circle class="st3" cx="599.52" cy="1046.52" r="2.02"/>
	<circle class="st8" cx="579.38" cy="1016.73" r="3.04"/>
	<circle class="st4" cx="754.94" cy="1031.77" r="0.74"/>
	<circle class="st6" cx="762.01" cy="1095.06" r="4.69"/>
	<circle class="st7" cx="763.48" cy="1074.35" r="0.74"/>
	<circle class="st3" cx="754.65" cy="1079.25" r="2.02"/>
	<circle class="st8" cx="734.51" cy="1049.47" r="3.04"/>
	<circle class="st5" cx="693.8" cy="1085.28" r="1.6"/>
	<circle class="st0" cx="645.09" cy="965.56" r="4.69"/>
	<circle class="st2" cx="637.01" cy="959.07" r="0.74"/>
	<circle class="st5" cx="638.62" cy="945.01" r="1.6"/>
	<circle class="st8" cx="693.43" cy="989.8" r="2.5"/>
	<circle class="st0" cx="819.34" cy="953.06" r="0.74"/>
	<circle class="st3" cx="847.38" cy="923.26" r="0.74"/>
	<circle class="st8" cx="838.12" cy="930.02" r="2.5"/>
	<circle class="st9" cx="753.43" cy="913.02" r="1.84"/>
	<circle class="st1" cx="793.92" cy="1018.53" r="2.79"/>
	<circle class="st3" cx="807.53" cy="1005.24" r="0.74"/>
	<circle class="st0" cx="763.25" cy="966.07" r="1.48"/>
	<circle class="st5" cx="783.27" cy="1005.52" r="0.74"/>
	<circle class="st9" cx="765.41" cy="999.78" r="1.84"/>
	<circle class="st0" cx="1114.66" cy="944.85" r="4.69"/>
	<circle class="st1" cx="992.74" cy="1053.57" r="2.79"/>
	<circle class="st2" cx="1104.74" cy="941.86" r="0.74"/>
	<circle class="st3" cx="1001.94" cy="1036.92" r="0.74"/>
	<circle class="st0" cx="1079.39" cy="999.98" r="0.74"/>
	<circle class="st3" cx="1039.9" cy="1010.7" r="0.74"/>
	<circle class="st0" cx="948.24" cy="1012.18" r="1.48"/>
	<circle class="st4" cx="1135.95" cy="1050.9" r="0.74"/>
	<circle class="st5" cx="978.79" cy="1044.18" r="0.74"/>
	<circle class="st6" cx="1163.03" cy="993.27" r="4.69"/>
	<circle class="st7" cx="1150.94" cy="1010.15" r="0.74"/>
	<circle class="st3" cx="1161.03" cy="1010.59" r="2.02"/>
	<circle class="st8" cx="1162.61" cy="1046.51" r="3.04"/>
	<circle class="st4" cx="1020.86" cy="941.85" r="0.74"/>
	<circle class="st6" cx="1047.94" cy="884.21" r="4.69"/>
	<circle class="st7" cx="1035.86" cy="901.1" r="0.74"/>
	<circle class="st3" cx="1045.95" cy="901.53" r="2.02"/>
	<circle class="st8" cx="1047.53" cy="937.45" r="3.04"/>
	<circle class="st5" cx="1100.96" cy="928.22" r="1.6"/>
	<circle class="st0" cx="1079.84" cy="1055.74" r="4.69"/>
	<circle class="st2" cx="1083.33" cy="1065.5" r="0.74"/>
	<circle class="st5" cx="1074.61" cy="1076.64" r="1.6"/>
	<circle class="st8" cx="1051.32" cy="1009.79" r="2.5"/>
	<circle class="st0" cx="924.8" cy="975.24" r="0.74"/>
	<circle class="st3" cx="885.31" cy="985.96" r="0.74"/>
	<circle class="st8" cx="896.74" cy="985.04" r="2.5"/>
	<circle class="st9" cx="960.03" cy="1043.84" r="1.84"/>
	<circle class="st1" cx="980.72" cy="932.73" r="2.79"/>
	<circle class="st3" cx="962.16" cy="936.94" r="0.74"/>
	<circle class="st0" cx="979.41" cy="993.49" r="1.48"/>
	<circle class="st5" cx="982.98" cy="949.39" r="0.74"/>
	<circle class="st9" cx="995.21" cy="963.63" r="1.84"/>
	<circle class="st0" cx="1004.97" cy="498.95" r="4.69"/>
	<circle class="st1" cx="1101.65" cy="818.76" r="2.79"/>
	<circle class="st2" cx="994.86" cy="501.2" r="0.74"/>
	<circle class="st3" cx="1091.86" cy="802.45" r="0.74"/>
	<circle class="st0" cx="1098.77" cy="716.92" r="0.74"/>
	<circle class="st3" cx="1088.23" cy="756.46" r="0.74"/>
	<circle class="st0" cx="1043.52" cy="836.48" r="1.48"/>
	<circle class="st4" cx="1171.2" cy="693.54" r="0.74"/>
	<circle class="st5" cx="1086.53" cy="826.11" r="0.74"/>
	<circle class="st6" cx="1134.93" cy="641.2" r="4.69"/>
	<circle class="st7" cx="1143.47" cy="660.12" r="0.74"/>
	<circle class="st3" cx="1148.91" cy="651.61" r="2.02"/>
	<circle class="st8" cx="1180.77" cy="668.27" r="3.04"/>
	<circle class="st4" cx="1019.12" cy="738.37" r="0.74"/>
	<circle class="st6" cx="917.09" cy="478.8" r="4.69"/>
	<circle class="st7" cx="914.84" cy="499.44" r="0.74"/>
	<circle class="st3" cx="923.84" cy="494.88" r="2.02"/>
	<circle class="st8" cx="1028.69" cy="713.1" r="3.04"/>
	<circle class="st5" cx="984.88" cy="491.17" r="1.6"/>
	<circle class="st0" cx="1147.23" cy="744.5" r="4.69"/>
	<circle class="st2" cx="1157.42" cy="746.38" r="0.74"/>
	<circle class="st5" cx="1162.68" cy="759.51" r="1.6"/>
	<circle class="st8" cx="1093.17" cy="746.11" r="2.5"/>
	<circle class="st0" cx="999.8" cy="838.22" r="0.74"/>
	<circle class="st3" cx="989.27" cy="877.76" r="0.74"/>
	<circle class="st8" cx="994.21" cy="867.42" r="2.5"/>
	<circle class="st9" cx="1076.82" cy="842.17" r="1.84"/>
	<circle class="st1" cx="991.09" cy="768.53" r="2.79"/>
	<circle class="st3" cx="985.42" cy="786.69" r="0.74"/>
	<circle class="st0" cx="1042.99" cy="800.14" r="1.48"/>
	<circle class="st5" cx="1006.64" cy="774.93" r="0.74"/>
	<circle class="st9" cx="1025.09" cy="771.5" r="1.84"/>
	<circle class="st0" cx="376.24" cy="808.8" r="4.69"/>
	<circle class="st1" cx="212.9" cy="811.19" r="2.79"/>
	<circle class="st2" cx="370.69" cy="800.04" r="0.74"/>
	<circle class="st3" cx="230.75" cy="804.62" r="0.74"/>
	<circle class="st0" cx="313.48" cy="827.39" r="0.74"/>
	<circle class="st3" cx="276.61" cy="809.65" r="0.74"/>
	<circle class="st0" cx="206.35" cy="750.78" r="1.48"/>
	<circle class="st4" cx="322.92" cy="902.91" r="0.74"/>
	<circle class="st5" cx="208.5" cy="794.97" r="0.74"/>
	<circle class="st6" cx="381.11" cy="877.07" r="4.69"/>
	<circle class="st7" cx="360.93" cy="881.92" r="0.74"/>
	<circle class="st3" cx="368.27" cy="888.85" r="2.02"/>
	<circle class="st8" cx="345.95" cy="917.04" r="3.04"/>
	<circle class="st4" cx="307.29" cy="745.14" r="0.74"/>
	<circle class="st6" cx="365.49" cy="719.29" r="4.69"/>
	<circle class="st7" cx="345.3" cy="724.14" r="0.74"/>
	<circle class="st3" cx="352.64" cy="731.07" r="2.02"/>
	<circle class="st8" cx="330.33" cy="759.26" r="3.04"/>
	<circle class="st5" cx="376.76" cy="787.26" r="1.6"/>
	<circle class="st0" cx="277.33" cy="869.84" r="4.69"/>
	<circle class="st2" cx="273.58" cy="879.5" r="0.74"/>
	<circle class="st5" cx="259.7" cy="882.22" r="1.6"/>
	<circle class="st8" cx="285.85" cy="816.44" r="2.5"/>
	<circle class="st0" cx="212.81" cy="707.51" r="0.74"/>
	<circle class="st3" cx="175.93" cy="689.76" r="0.74"/>
	<circle class="st8" cx="185.17" cy="696.55" r="2.5"/>
	<circle class="st9" cx="194.54" cy="782.42" r="1.84"/>
	<circle class="st1" cx="282.9" cy="711.97" r="2.79"/>
	<circle class="st3" cx="266.12" cy="703" r="0.74"/>
	<circle class="st0" cx="242.15" cy="757.05" r="1.48"/>
	<circle class="st5" cx="273.71" cy="726.05" r="0.74"/>
	<circle class="st9" cx="273.64" cy="744.81" r="1.84"/>
	<circle class="st0" cx="115.83" cy="428.44" r="4.69"/>
	<circle class="st1" cx="256.28" cy="511.85" r="2.79"/>
	<circle class="st2" cx="115.97" cy="438.8" r="0.74"/>
	<circle class="st3" cx="237.63" cy="508.11" r="0.74"/>
	<circle class="st0" cx="179.04" cy="445.42" r="0.74"/>
	<circle class="st3" cx="201.18" cy="479.83" r="0.74"/>
	<circle class="st0" cx="230.26" cy="566.77" r="1.48"/>
	<circle class="st4" cx="210.51" cy="376.13" r="0.74"/>
	<circle class="st5" cx="251.54" cy="527.98" r="0.74"/>
	<circle class="st6" cx="147.39" cy="367.71" r="4.69"/>
	<circle class="st7" cx="167.13" cy="374.13" r="0.74"/>
	<circle class="st3" cx="164.5" cy="364.38" r="2.02"/>
	<circle class="st8" cx="198.27" cy="352.03" r="3.04"/>
	<circle class="st4" cx="141.28" cy="518.76" r="0.74"/>
	<circle class="st6" cx="78.16" cy="510.35" r="4.69"/>
	<circle class="st7" cx="97.9" cy="516.77" r="0.74"/>
	<circle class="st3" cx="95.27" cy="507.02" r="2.02"/>
	<circle class="st8" cx="129.04" cy="494.67" r="3.04"/>
	<circle class="st5" cx="104.12" cy="446.52" r="1.6"/>
	<circle class="st0" cx="232.06" cy="428.16" r="4.69"/>
	<circle class="st2" cx="240.31" cy="421.89" r="0.74"/>
	<circle class="st5" cx="253.56" cy="426.84" r="1.6"/>
	<circle class="st8" cx="196.86" cy="469.22" r="2.5"/>
	<circle class="st0" cx="202.11" cy="600.26" r="0.74"/>
	<circle class="st3" cx="224.26" cy="634.68" r="0.74"/>
	<circle class="st8" cx="219.94" cy="624.06" r="2.5"/>
	<circle class="st9" cx="256.88" cy="545.97" r="1.84"/>
	<circle class="st1" cx="144.71" cy="559.79" r="2.79"/>
	<circle class="st3" cx="154.32" cy="576.21" r="0.74"/>
	<circle class="st0" cx="203.03" cy="542.69" r="1.48"/>
	<circle class="st5" cx="159.91" cy="552.6" r="0.74"/>
	<circle class="st9" cx="169.79" cy="536.65" r="1.84"/>
	<circle class="st1" cx="-0.45" cy="478.91" r="2.79"/>
	<circle class="st3" cx="-13.05" cy="493.16" r="0.74"/>
	<circle class="st3" cx="-55.79" cy="510.51" r="0.74"/>
	<circle class="st0" cx="33.99" cy="528.97" r="1.48"/>
	<circle class="st5" cx="11.12" cy="491.1" r="0.74"/>
	<circle class="st4" cx="-52.17" cy="581.85" r="0.74"/>
	<circle class="st0" cx="-85" cy="457.87" r="4.69"/>
	<circle class="st2" cx="-86.29" cy="447.59" r="0.74"/>
	<circle class="st5" cx="-75.36" cy="438.61" r="1.6"/>
	<circle class="st8" cx="-67.15" cy="508.92" r="2.5"/>
	<circle class="st0" cx="48.85" cy="570.12" r="0.74"/>
	<circle class="st3" cx="89.73" cy="568.23" r="0.74"/>
	<circle class="st8" cx="78.38" cy="566.64" r="2.5"/>
	<circle class="st9" cx="29.36" cy="495.51" r="1.84"/>
	<circle class="st1" cx="-14.96" cy="599.47" r="2.79"/>
	<circle class="st3" cx="4.06" cy="599.39" r="0.74"/>
	<circle class="st0" cx="-0.49" cy="540.45" r="1.48"/>
	<circle class="st5" cx="-13.56" cy="582.72" r="0.74"/>
	<circle class="st9" cx="-22.4" cy="566.16" r="1.84"/>
	<circle class="st1" cx="1300.34" cy="737.76" r="2.79"/>
	<circle class="st3" cx="1301.21" cy="756.76" r="0.74"/>
	<circle class="st0" cx="1359.91" cy="749.75" r="1.48"/>
	<circle class="st5" cx="1317.13" cy="738.46" r="0.74"/>
	<circle class="st4" cx="1334.81" cy="847.69" r="0.74"/>
	<circle class="st0" cx="1399.21" cy="768.97" r="0.74"/>
	<circle class="st3" cx="1427.26" cy="739.17" r="0.74"/>
	<circle class="st8" cx="1418" cy="745.93" r="2.5"/>
	<circle class="st9" cx="1333.3" cy="728.94" r="1.84"/>
	<circle class="st1" cx="1373.8" cy="834.45" r="2.79"/>
	<circle class="st3" cx="1387.41" cy="821.16" r="0.74"/>
	<circle class="st0" cx="1343.13" cy="781.99" r="1.48"/>
	<circle class="st5" cx="1363.15" cy="821.44" r="0.74"/>
	<circle class="st9" cx="1345.28" cy="815.7" r="1.84"/>
	<circle class="st6" cx="1627.82" cy="700.13" r="4.69"/>
	<circle class="st7" cx="1615.74" cy="717.01" r="0.74"/>
	<circle class="st3" cx="1625.82" cy="717.45" r="2.02"/>
	<circle class="st0" cx="1504.68" cy="791.15" r="0.74"/>
	<circle class="st3" cx="1465.19" cy="801.88" r="0.74"/>
	<circle class="st8" cx="1476.61" cy="800.96" r="2.5"/>
	<circle class="st1" cx="1560.59" cy="748.65" r="2.79"/>
	<circle class="st3" cx="1542.04" cy="752.85" r="0.74"/>
	<circle class="st5" cx="1562.86" cy="765.31" r="0.74"/>
	<circle class="st1" cx="1681.53" cy="634.68" r="2.79"/>
	<circle class="st3" cx="1671.74" cy="618.36" r="0.74"/>
	<circle class="st0" cx="1678.65" cy="532.83" r="0.74"/>
	<circle class="st3" cx="1668.11" cy="572.37" r="0.74"/>
	<circle class="st0" cx="1623.4" cy="652.4" r="1.48"/>
	<circle class="st5" cx="1666.41" cy="642.03" r="0.74"/>
	<circle class="st6" cx="1714.8" cy="457.11" r="4.69"/>
	<circle class="st7" cx="1723.35" cy="476.04" r="0.74"/>
	<circle class="st4" cx="1599" cy="554.29" r="0.74"/>
	<circle class="st8" cx="1608.57" cy="529.02" r="3.04"/>
	<circle class="st0" cx="1727.1" cy="560.42" r="4.69"/>
	<circle class="st2" cx="1737.29" cy="562.3" r="0.74"/>
	<circle class="st5" cx="1742.55" cy="575.43" r="1.6"/>
	<circle class="st8" cx="1673.05" cy="562.03" r="2.5"/>
	<circle class="st0" cx="1579.68" cy="654.14" r="0.74"/>
	<circle class="st3" cx="1569.14" cy="693.68" r="0.74"/>
	<circle class="st8" cx="1574.08" cy="683.34" r="2.5"/>
	<circle class="st9" cx="1656.7" cy="658.09" r="1.84"/>
	<circle class="st1" cx="1570.97" cy="584.45" r="2.79"/>
	<circle class="st3" cx="1565.3" cy="602.61" r="0.74"/>
	<circle class="st0" cx="1622.87" cy="616.06" r="1.48"/>
	<circle class="st5" cx="1586.51" cy="590.84" r="0.74"/>
	<circle class="st9" cx="1604.96" cy="587.41" r="1.84"/>
	<g>
	</g>
	<g>
	</g>
	<g>
	</g>
	<g>
	</g>
	<g>
	</g>
	<g>
	</g>
	<g>
	</g>
	<g>
	</g>
	<g>
	</g>
	<g>
	</g>
	<g>
	</g>
	<g>
	</g>
	<g>
	</g>
	<g>
	</g>
	<g>
	</g>
	<g>
	</g>
</g>
</svg>
